This is TeX, Version 3.141592 (Web2C 7.5.6) (format=tex 2013.5.22)  22 JUL 2014 15:22
**set-nv-org.tex

! Emergency stop.
<*> set-nv-org.tex
                  
End of file on the terminal!

No pages of output.
